<?xml version="1.0" encoding="UTF-8"?>
<svg width="120px" height="120px" viewBox="0 0 120 120" version="1.1" xmlns="http://www.w3.org/2000/svg" xmlns:xlink="http://www.w3.org/1999/xlink">
    <!-- Generator: Sketch 53.2 (72643) - https://sketchapp.com -->
    <title>btn_config_default</title>
    <desc>Created with Sketch.</desc>
    <g id="spec" stroke="none" stroke-width="1" fill="none" fill-rule="evenodd">
        <g id="Artboard" transform="translate(-1136.000000, -1042.000000)">
            <g id="btn_config_default" transform="translate(1136.000000, 1042.000000)">
                <rect id="Rectangle-Copy-97" fill="#000000" x="0" y="0" width="120" height="120" rx="6"></rect>
                <g id="Group-19" transform="translate(23.000000, 27.000000)">
                    <path d="M46.7525,27.941 C46.6415,28.14 46.5255,28.336 46.4065,28.528 C46.3075,28.689 46.2065,28.848 46.1015,29.005 C45.9785,29.189 45.8505,29.368 45.7195,29.545 C45.6045,29.701 45.4865,29.858 45.3645,30.01 C45.2325,30.176 45.0955,30.336 44.9575,30.495 C44.8245,30.648 44.6905,30.799 44.5505,30.947 C44.4115,31.095 44.2665,31.238 44.1215,31.38 C43.9715,31.526 43.8195,31.672 43.6625,31.813 C43.5155,31.944 43.3655,32.071 43.2135,32.196 C43.0465,32.335 42.8775,32.471 42.7025,32.604 C42.5495,32.719 42.3945,32.83 42.2375,32.94 C42.0535,33.068 41.8675,33.193 41.6765,33.315 C38.3445,35.427 34.2265,36.213 30.1835,35.263 C28.7705,34.931 27.4495,34.395 26.2325,33.708 C25.9905,33.571 25.7475,33.434 25.5155,33.285 C25.3705,33.192 25.2325,33.09 25.0915,32.993 C24.8965,32.858 24.6995,32.726 24.5125,32.583 C24.3495,32.459 24.1945,32.326 24.0375,32.195 C23.8825,32.067 23.7255,31.941 23.5755,31.807 C23.4105,31.658 23.2525,31.5 23.0945,31.344 C22.9635,31.216 22.8305,31.091 22.7055,30.959 C22.5505,30.794 22.4035,30.622 22.2555,30.45 C22.1375,30.314 22.0165,30.179 21.9035,30.039 C21.7675,29.869 21.6415,29.692 21.5125,29.517 C21.3995,29.363 21.2835,29.212 21.1775,29.054 C21.0635,28.886 20.9595,28.712 20.8515,28.539 C20.7435,28.364 20.6335,28.191 20.5325,28.013 C20.4405,27.849 20.3575,27.681 20.2715,27.514 C20.1695,27.318 20.0665,27.123 19.9745,26.922 C19.9005,26.762 19.8355,26.597 19.7665,26.433 C19.6785,26.222 19.5875,26.011 19.5085,25.796 C19.4465,25.627 19.3945,25.454 19.3385,25.283 C19.2695,25.069 19.1965,24.856 19.1365,24.639 C19.0845,24.447 19.0425,24.252 18.9965,24.058 C18.9495,23.858 18.8985,23.658 18.8595,23.455 C18.8155,23.226 18.7845,22.993 18.7515,22.761 C18.7265,22.588 18.6965,22.418 18.6775,22.244 C18.6485,21.972 18.6345,21.696 18.6195,21.42 C18.6125,21.281 18.5975,21.143 18.5945,21.002 C18.5875,20.726 18.5975,20.454 18.6055,20.18 C18.6095,20.033 18.6065,19.886 18.6155,19.738 C18.6275,19.528 18.6555,19.321 18.6765,19.113 C18.6985,18.9 18.7125,18.688 18.7435,18.475 C18.7645,18.334 18.7955,18.196 18.8205,18.056 C18.8675,17.781 18.9145,17.505 18.9785,17.231 C19.0075,17.101 19.0475,16.975 19.0815,16.847 C19.1525,16.572 19.2245,16.298 19.3095,16.031 C19.3605,15.871 19.4225,15.715 19.4795,15.558 C19.5605,15.331 19.6395,15.103 19.7315,14.882 C19.8085,14.695 19.8965,14.515 19.9805,14.332 C20.0655,14.147 20.1485,13.959 20.2415,13.778 C20.3415,13.581 20.4535,13.391 20.5625,13.199 C20.6535,13.039 20.7415,12.876 20.8385,12.72 C20.9565,12.528 21.0855,12.343 21.2125,12.157 C21.3145,12.007 21.4135,11.855 21.5215,11.71 C21.6495,11.535 21.7885,11.367 21.9245,11.198 C22.0445,11.049 22.1615,10.899 22.2865,10.755 C22.4195,10.602 22.5615,10.457 22.7005,10.309 C22.8415,10.159 22.9805,10.008 23.1275,9.864 C23.2625,9.733 23.4045,9.609 23.5435,9.483 C23.7065,9.336 23.8675,9.187 24.0375,9.046 C24.1745,8.932 24.3195,8.826 24.4615,8.717 C24.6425,8.578 24.8205,8.438 25.0075,8.307 C25.1545,8.204 25.3095,8.108 25.4605,8.01 C25.6495,7.888 25.8365,7.764 26.0315,7.65 C26.2025,7.55 26.3805,7.46 26.5565,7.366 C26.7385,7.269 26.9185,7.169 27.1035,7.079 C27.3155,6.977 27.5335,6.887 27.7505,6.795 C27.9095,6.728 28.0655,6.655 28.2275,6.593 C28.4845,6.494 28.7505,6.409 29.0155,6.323 C29.1455,6.281 29.2735,6.233 29.4055,6.194 C29.6725,6.116 29.9415,6.055 30.2095,5.993 C30.3515,5.96 30.4905,5.919 30.6335,5.89 C30.8425,5.848 31.0515,5.821 31.2605,5.788 C31.4695,5.754 31.6755,5.715 31.8875,5.69 C32.0325,5.673 32.1765,5.669 32.3215,5.656 C32.5965,5.632 32.8715,5.607 33.1495,5.598 C33.2845,5.593 33.4195,5.6 33.5545,5.599 C33.8355,5.598 34.1165,5.596 34.3945,5.61 C34.5645,5.619 34.7325,5.639 34.9015,5.653 C35.1395,5.674 35.3775,5.691 35.6135,5.723 C35.8145,5.75 36.0135,5.789 36.2135,5.824 C36.4135,5.859 36.6135,5.89 36.8115,5.933 C37.0285,5.98 37.2425,6.039 37.4575,6.096 C37.6345,6.143 37.8125,6.186 37.9875,6.239 C38.2045,6.305 38.4175,6.382 38.6305,6.458 C38.8005,6.518 38.9715,6.574 39.1385,6.64 C39.3425,6.72 39.5425,6.812 39.7425,6.901 C39.9145,6.978 40.0875,7.051 40.2565,7.134 C40.4405,7.225 40.6195,7.325 40.7995,7.423 C40.9795,7.52 41.1595,7.615 41.3345,7.72 C41.4965,7.816 41.6525,7.922 41.8105,8.024 C41.9945,8.144 42.1795,8.262 42.3585,8.389 C42.5045,8.494 42.6455,8.607 42.7875,8.716 C42.9675,8.854 43.1485,8.99 43.3215,9.137 C43.4605,9.254 43.5945,9.381 43.7305,9.504 C43.8945,9.653 44.0605,9.801 44.2175,9.957 C44.3605,10.099 44.4965,10.251 44.6345,10.399 C44.7725,10.548 44.9135,10.694 45.0455,10.848 C45.1995,11.027 45.3425,11.216 45.4885,11.404 C45.5935,11.54 45.7035,11.671 45.8045,11.81 C45.9665,12.035 46.1175,12.271 46.2695,12.506 C47.0235,13.681 47.6325,14.968 48.0445,16.358 C49.2225,20.339 48.6715,24.495 46.7525,27.941 M53.8645,24.542 C54.3785,21.886 54.3785,19.365 53.8645,16.708 C52.7345,16.509 51.6045,16.31 50.4745,16.11 C50.1635,14.951 49.7455,13.861 49.2135,12.804 L49.2175,12.804 C49.0655,12.502 48.9045,12.205 48.7365,11.912 C48.7345,11.909 48.7335,11.906 48.7315,11.903 C49.3905,10.963 50.0485,10.024 50.7065,9.083 C49.9485,7.962 49.1245,6.956 48.2095,6.041 C47.2945,5.126 46.2885,4.301 45.1675,3.544 C44.2265,4.202 43.2865,4.86 42.3465,5.519 C41.0095,4.747 39.6305,4.175 38.1395,3.776 C37.9405,2.646 37.7415,1.516 37.5425,0.386 C36.2135,0.129 34.9195,0 33.6255,0 C32.3305,0 31.0365,0.129 29.7085,0.386 C29.5085,1.516 29.3095,2.646 29.1095,3.776 C27.6195,4.175 26.2405,4.747 24.9035,5.519 C23.9635,4.86 23.0235,4.202 22.0835,3.544 C20.4015,4.68 18.9785,5.967 17.7325,7.485 C17.3175,7.991 16.9225,8.523 16.5435,9.083 C17.2015,10.024 17.8595,10.963 18.5185,11.903 C17.7465,13.24 17.1755,14.619 16.7755,16.11 C15.6455,16.31 14.5155,16.509 13.3855,16.708 C12.8715,19.365 12.8715,21.886 13.3855,24.542 C14.5155,24.741 15.6455,24.941 16.7755,25.14 C17.1755,26.631 17.7465,28.01 18.5185,29.347 L16.5435,32.167 C16.9225,32.728 17.3175,33.259 17.7325,33.766 C18.1485,34.272 18.5835,34.752 19.0415,35.21 C19.0845,35.253 19.1335,35.29 19.1765,35.333 C20.0575,36.197 21.0155,36.985 22.0835,37.707 C23.0235,37.048 23.9635,36.39 24.9035,35.732 C25.1575,35.878 25.4155,36.019 25.6765,36.152 C25.6765,36.151 25.6775,36.149 25.6785,36.147 C26.7745,36.71 27.9045,37.151 29.1095,37.475 C29.3095,38.605 29.5085,39.735 29.7085,40.865 C32.3645,41.379 34.8855,41.379 37.5425,40.865 C37.7415,39.735 37.9405,38.605 38.1395,37.475 C39.2985,37.164 40.3895,36.746 41.4465,36.214 L41.4465,36.217 C41.7515,36.065 42.0505,35.902 42.3465,35.732 C42.6285,35.929 42.9105,36.127 43.1925,36.324 L45.1675,37.707 C46.8485,36.57 48.2715,35.284 49.5175,33.766 C49.9325,33.259 50.3275,32.728 50.7065,32.167 L48.7315,29.347 C48.7335,29.343 48.7355,29.34 48.7375,29.337 C48.8825,29.086 49.0205,28.832 49.1525,28.574 C49.1505,28.573 49.1485,28.573 49.1465,28.572 C49.7095,27.476 50.1515,26.345 50.4745,25.14 C51.6045,24.941 52.7345,24.741 53.8645,24.542" id="Fill-322-Copy" fill="#6699F0"></path>
                    <path d="M25.5397831,57.0936736 C25.4548795,57.2459076 25.3661515,57.3958466 25.2751287,57.5427256 C25.1994039,57.6658898 25.1221493,57.787524 25.0418351,57.9076282 C24.9477527,58.0483873 24.8498459,58.1853214 24.7496444,58.3207255 C24.6616812,58.4400647 24.5714233,58.5601689 24.4781059,58.6764481 C24.3771394,58.8034373 24.2723485,58.9258365 24.1667927,59.0474706 C24.0650614,59.1645149 23.9625652,59.2800291 23.8554796,59.3932484 C23.7491589,59.5064676 23.6382488,59.6158619 23.5273387,59.7244912 C23.4126041,59.8361804 23.2963398,59.9478697 23.1762509,60.055734 C23.063811,60.1559483 22.9490765,60.2531027 22.8328121,60.348727 C22.7050743,60.4550613 22.5758067,60.5591006 22.4419497,60.660845 C22.3249204,60.7488194 22.2063613,60.8337338 22.0862725,60.9178833 C21.9455314,61.0158026 21.8032605,61.111427 21.6571652,61.2047564 C19.1085279,62.8204257 15.9586814,63.4217117 12.8662023,62.6949665 C11.7854026,62.4409882 10.7749735,62.0309509 9.84409364,61.5053994 C9.65898853,61.4005951 9.47311852,61.2957908 9.29566238,61.1818065 C9.1847523,61.110662 9.07919649,61.0326325 8.97134599,60.958428 C8.82219105,60.8551537 8.67150631,60.7541743 8.52847054,60.6447801 C8.40379231,60.5499207 8.28523325,60.4481764 8.1651444,60.347962 C8.04658534,60.2500427 7.92649649,60.1536533 7.81176192,60.051144 C7.68555389,59.9371598 7.56470014,59.8162906 7.44384639,59.6969513 C7.34364486,59.599032 7.24191354,59.5034076 7.1463014,59.4024283 C7.02774234,59.2762041 6.91530246,59.144625 6.80209768,59.0130459 C6.71183982,58.9090066 6.61928726,58.8057322 6.53285388,58.698633 C6.42882787,58.5685838 6.33245083,58.4331797 6.2337791,58.2993056 C6.14734572,58.1814964 6.05861765,58.0659821 5.97753856,57.9451129 C5.89034028,57.8165938 5.81079098,57.6834847 5.72818209,57.5511406 C5.64557319,57.4172664 5.56143451,57.2849223 5.4841799,57.1487532 C5.41380936,57.0232941 5.35032289,56.8947749 5.28454174,56.7670207 C5.20652223,56.6170817 5.12773782,56.4679077 5.05736729,56.3141437 C5.0007649,56.1917446 4.95104658,56.0655204 4.89826868,55.9400612 C4.83095773,55.7786473 4.76135209,55.6172334 4.70092522,55.4527595 C4.65350159,55.3234753 4.61372694,55.1911312 4.5708927,55.0603171 C4.5181148,54.8966081 4.46227731,54.7336642 4.41638348,54.5676603 C4.37660883,54.4207813 4.34448314,54.2716073 4.30929788,54.1231983 C4.27334771,53.9701993 4.23433796,53.8172003 4.20450697,53.6619063 C4.17085149,53.4867225 4.14713968,53.3084787 4.12189807,53.1309998 C4.10277565,52.9986557 4.07982873,52.8686066 4.06529569,52.7354974 C4.04311367,52.5274188 4.03240511,52.3162802 4.02093165,52.1051416 C4.01557737,51.9988073 4.00410391,51.893238 4.00180922,51.7853737 C3.99645494,51.5742351 4.00410391,51.3661565 4.01022309,51.1565479 C4.01328268,51.0440936 4.01098799,50.9316394 4.01787206,50.8184201 C4.02705083,50.6577712 4.04846795,50.4994173 4.06453079,50.3402983 C4.08135853,50.1773544 4.09206709,50.0151755 4.1157789,49.8522315 C4.13184174,49.7443673 4.15555355,49.638798 4.17467598,49.5316987 C4.21062614,49.3213251 4.24657631,49.1101865 4.29552973,48.9005778 C4.31771174,48.8011285 4.34830763,48.7047391 4.37431413,48.6068198 C4.42862183,48.3964462 4.48369443,48.1868376 4.54871068,47.9825839 C4.58772044,47.8601847 4.63514406,47.7408455 4.6787432,47.6207413 C4.74069987,47.4470875 4.80112674,47.2726686 4.87149728,47.1036047 C4.93039436,46.9605507 4.99770531,46.8228516 5.06195667,46.6828575 C5.12697293,46.5413335 5.19045939,46.3975144 5.26159483,46.2590503 C5.33808454,46.1083463 5.42375302,45.9629973 5.50712681,45.8161183 C5.57673245,45.6937191 5.6440434,45.5690249 5.71823842,45.4496857 C5.80849629,45.3028067 5.90716802,45.1612826 6.00430996,45.0189935 C6.08232946,44.9042443 6.15805428,44.7879651 6.24066317,44.6770408 C6.33857001,44.5431667 6.44489071,44.4146475 6.54891672,44.2853634 C6.64070438,44.1713792 6.73019735,44.0566299 6.82580949,43.9464706 C6.92754081,43.8294264 7.03615621,43.7185022 7.14247691,43.6052829 C7.25032741,43.4905337 7.35664811,43.3750194 7.46908799,43.2648602 C7.57234911,43.1646458 7.6809645,43.0697864 7.78728521,42.9733971 C7.91196344,42.8609428 8.03511188,42.7469586 8.1651444,42.6390943 C8.26993531,42.5518849 8.38084539,42.4707954 8.48946079,42.387411 C8.62790717,42.2810767 8.76405886,42.1739774 8.90709463,42.073763 C9.01953451,41.9949686 9.13809357,41.9215291 9.25359304,41.8465595 C9.3981586,41.7532302 9.54119437,41.6583708 9.69034931,41.5711614 C9.82114672,41.4946619 9.95729842,41.4258123 10.0919203,41.3539028 C10.2311316,41.2796983 10.3688131,41.2031988 10.5103191,41.1343493 C10.6724772,41.0563198 10.8392248,40.9874702 11.0052075,40.9170907 C11.1268262,40.865836 11.2461501,40.8099914 11.3700634,40.7625617 C11.566642,40.6868272 11.7701047,40.6218027 11.9728024,40.5560131 C12.072239,40.5238833 12.1701459,40.4871636 12.2711123,40.4573287 C12.4753398,40.3976591 12.6810972,40.3509945 12.8860896,40.3035648 C12.994705,40.2783199 13.1010257,40.2469551 13.210406,40.2247703 C13.3702695,40.1926405 13.530133,40.1719856 13.6899965,40.1467408 C13.84986,40.120731 14.0074288,40.0908962 14.169587,40.0717713 C14.2804971,40.0587664 14.3906423,40.0557064 14.5015524,40.0457615 C14.7118991,40.0274016 14.9222458,40.0082767 15.1348872,40.0013918 C15.2381483,39.9975668 15.3414094,40.0029218 15.4446706,40.0021568 C15.6596067,40.0013918 15.8745428,39.9998618 16.0871842,40.0105717 C16.2172167,40.0174567 16.3457194,40.0327566 16.474987,40.0434665 C16.6570325,40.0595314 16.8390781,40.0725363 17.0195938,40.0970161 C17.1733381,40.117671 17.3255526,40.1475058 17.4785321,40.1742806 C17.6315115,40.2010554 17.7844909,40.2247703 17.9359406,40.2576651 C18.1019232,40.2936198 18.2656112,40.3387545 18.4300641,40.3823592 C18.5654509,40.418314 18.7016026,40.4512088 18.8354596,40.4917535 C19.0014423,40.5422432 19.1643654,40.6011478 19.3272885,40.6592874 C19.457321,40.7051871 19.5881184,40.7480268 19.7158562,40.7985165 C19.8718952,40.8597161 20.0248747,40.9300956 20.1778541,40.9981802 C20.3094164,41.0570848 20.4417436,41.1129294 20.5710112,41.176424 C20.7117523,41.2460385 20.8486689,41.322538 20.9863504,41.3975075 C21.1240319,41.471712 21.2617134,41.5443865 21.3955704,41.624711 C21.5194837,41.6981505 21.6388077,41.77924 21.7596614,41.8572695 C21.9004025,41.9490689 22.0419085,42.0393383 22.178825,42.1364926 C22.2905,42.2168171 22.3983505,42.3032615 22.5069659,42.386646 C22.6446474,42.4922153 22.7830938,42.5962546 22.915421,42.7087088 C23.0217417,42.7982132 23.1242379,42.8953676 23.2282639,42.989462 C23.3537071,43.1034462 23.48068,43.2166655 23.6007688,43.3360047 C23.7101491,43.444634 23.8141751,43.5609132 23.919731,43.6741324 C24.0252868,43.7881167 24.1331373,43.899806 24.2341037,44.0176152 C24.3518978,44.1545493 24.4612781,44.2991333 24.5729531,44.4429524 C24.6532673,44.5469917 24.737406,44.647206 24.8146606,44.7535403 C24.938574,44.9256642 25.0540734,45.106203 25.1703378,45.2859768 C25.7470702,46.1848458 26.2128926,47.1693943 26.5280302,48.2327373 C27.4290791,51.2781821 27.0076207,54.457501 25.5397831,57.0936736 M30.7102909,54.4434613 C31.0965697,52.4474612 31.0965697,50.5529145 30.7102909,48.556163 C29.8610788,48.4066133 29.0118667,48.2570636 28.1626545,48.1067623 C27.9289333,47.2357668 27.6148,46.4166253 27.2149939,45.6222834 L27.218,45.6222834 C27.1037697,45.3953285 26.9827758,45.1721312 26.8565212,44.95194 C26.8550182,44.9496855 26.8542667,44.9474309 26.8527636,44.9451764 C27.3480121,44.2387607 27.8425091,43.5330966 28.3370061,42.8259294 C27.7673576,41.9834911 27.1481091,41.227476 26.4604727,40.539848 C25.7728364,39.85222 25.0168121,39.2322275 24.1743636,38.6633374 C23.4671879,39.1578284 22.7607636,39.6523194 22.0543394,40.1475618 C21.0495636,39.5673992 20.0132242,39.1375377 18.8927152,38.8376868 C18.7431636,37.988485 18.5936121,37.1392832 18.4440606,36.2900813 C17.445297,36.0969443 16.4728364,36 15.5003758,36 C14.5271636,36 13.554703,36.0969443 12.5566909,36.2900813 C12.4063879,37.1392832 12.2568364,37.988485 12.1065333,38.8376868 C10.9867758,39.1375377 9.95043636,39.5673992 8.94566061,40.1475618 C8.23923636,39.6523194 7.53281212,39.1578284 6.82638788,38.6633374 C5.56233939,39.5170483 4.49293333,40.4842366 3.55654545,41.6250227 C3.24466667,42.0052848 2.94781818,42.405086 2.66299394,42.8259294 C3.15749091,43.5330966 3.65198788,44.2387607 4.14723636,44.9451764 C3.56706667,45.94994 3.13795152,46.9862668 2.83734545,48.1067623 C1.98813333,48.2570636 1.13892121,48.4066133 0.289709091,48.556163 C-0.096569697,50.5529145 -0.096569697,52.4474612 0.289709091,54.4434613 C1.13892121,54.593011 1.98813333,54.7433122 2.83734545,54.8928619 C3.13795152,56.0133574 3.56706667,57.0496842 4.14723636,58.0544478 L2.66299394,60.1736949 C2.94781818,60.5952898 3.24466667,60.9943395 3.55654545,61.375353 C3.86917576,61.7556151 4.19608485,62.116338 4.54027879,62.4605278 C4.57259394,62.4928425 4.60941818,62.5206482 4.64173333,62.552963 C5.30381818,63.2022642 6.0237697,63.794451 6.82638788,64.3370383 C7.53281212,63.8417959 8.23923636,63.3473049 8.94566061,62.8528139 C9.13654545,62.9625338 9.33043636,63.0684961 9.52658182,63.1684464 C9.52658182,63.1676949 9.52733333,63.1661919 9.52808485,63.1646889 C10.3517455,63.5877868 11.2009576,63.919201 12.1065333,64.1626889 C12.2568364,65.0118908 12.4063879,65.8610926 12.5566909,66.7102944 C14.5527152,67.0965685 16.4472848,67.0965685 18.4440606,66.7102944 C18.5936121,65.8610926 18.7431636,65.0118908 18.8927152,64.1626889 C19.7637212,63.9289706 20.5836242,63.614841 21.3779758,63.2150398 L21.3779758,63.2172943 C21.6071879,63.1030654 21.8318909,62.9805699 22.0543394,62.8528139 C22.2662667,63.0008606 22.4781939,63.1496588 22.6901212,63.2977055 L24.1743636,64.3370383 C25.4376606,63.482576 26.5070667,62.5161392 27.4434545,61.375353 C27.7553333,60.9943395 28.0521818,60.5952898 28.3370061,60.1736949 L26.8527636,58.0544478 C26.8542667,58.0514418 26.8557697,58.0491873 26.8572727,58.0469328 C26.9662424,57.8583047 27.0699515,57.6674222 27.1691515,57.4735337 C27.1676485,57.4727821 27.1661455,57.4727821 27.1646424,57.4720306 C27.5877455,56.64838 27.9199152,55.7984267 28.1626545,54.8928619 C29.0118667,54.7433122 29.8610788,54.593011 30.7102909,54.4434613" id="Fill-322-Copy-2" fill="#81848B"></path>
                    <path d="M69.8572216,42.3776576 C69.7907753,42.4967972 69.7213359,42.6141408 69.6501007,42.7290896 C69.5908378,42.825479 69.5303777,42.920671 69.4675231,43.0146655 C69.3938934,43.1248248 69.3172707,43.2319906 69.2388521,43.3379591 C69.1700114,43.431355 69.0993748,43.5253496 69.0263437,43.6163507 C68.9473265,43.7157335 68.8653162,43.8115242 68.7827074,43.9067162 C68.7030915,43.998316 68.6228771,44.0887184 68.539071,44.1773248 C68.4558635,44.2659312 68.3690643,44.3515441 68.2822651,44.4365583 C68.1924728,44.5239673 68.1014833,44.6113763 68.0075007,44.6957918 C67.9195043,44.7742204 67.829712,44.8502543 67.7387225,44.9250907 C67.6387538,45.0083089 67.5375878,45.0897309 67.4328302,45.1693569 C67.3412421,45.2382065 67.2484567,45.3046613 67.1544741,45.3705173 C67.0443289,45.4471499 66.9329865,45.5219863 66.818651,45.5950267 C64.8240653,46.8594636 62.3589681,47.3300352 59.938767,46.7612781 C59.0929238,46.5625125 58.3021531,46.2416137 57.5736385,45.8303126 C57.4287736,45.7482918 57.2833101,45.666271 57.1444314,45.577066 C57.0576322,45.5213876 56.9750233,45.4603211 56.8906186,45.402248 C56.7738886,45.3214246 56.6559615,45.2423973 56.5440204,45.1567844 C56.4464462,45.0825466 56.3536608,45.0029206 56.2596782,44.924492 C56.1668929,44.8478595 56.0729103,44.7724243 55.983118,44.6921997 C55.8843465,44.6029946 55.7897653,44.5084013 55.6951841,44.4150054 C55.6167655,44.3383729 55.5371497,44.2635364 55.4623228,44.1845091 C55.3695375,44.085725 55.2815411,43.98275 55.192946,43.879775 C55.1223094,43.798353 55.049877,43.7175296 54.9822335,43.6337128 C54.9008218,43.5319352 54.8253963,43.4259667 54.7481749,43.3211957 C54.6805314,43.2289972 54.6110921,43.1385947 54.5476389,43.0440014 C54.4793967,42.9434212 54.4171408,42.8392489 54.3524903,42.7356752 C54.2878399,42.6309042 54.2219922,42.5273305 54.1615321,42.4207634 C54.1064595,42.322578 54.0567744,42.2219978 54.0052935,42.1220162 C53.9442348,42.0046727 53.8825774,41.8879278 53.8275048,41.7675908 C53.7832073,41.6718001 53.7442973,41.573016 53.7029929,41.4748305 C53.6503147,41.3485066 53.5958408,41.2221826 53.5485502,41.0934639 C53.511436,40.992285 53.480308,40.8887114 53.4467856,40.7863351 C53.4054811,40.6582151 53.3617822,40.5306937 53.3258653,40.4007776 C53.2947373,40.2858288 53.2695955,40.169084 53.2420592,40.0529378 C53.2139243,39.9331994 53.1833949,39.8134611 53.1600489,39.6919267 C53.1337099,39.5548263 53.1151528,39.4153311 53.0953985,39.2764346 C53.0804331,39.172861 53.0624747,39.0710834 53.051101,38.966911 C53.0337411,38.8040669 53.0253605,38.638828 53.0163813,38.4735891 C53.012191,38.3903709 53.0032118,38.3077515 53.0014159,38.223336 C52.9972256,38.0580971 53.0032118,37.8952529 53.0080007,37.7312114 C53.0103951,37.6432037 53.0085993,37.555196 53.0139868,37.4665897 C53.0211702,37.3408644 53.0379314,37.2169352 53.0505024,37.0924074 C53.0636719,36.964886 53.0720525,36.8379634 53.0906096,36.7104421 C53.1031805,36.6260265 53.1217376,36.5434071 53.1367029,36.4595903 C53.1648379,36.29495 53.1929728,36.1297111 53.2312841,35.9656696 C53.248644,35.8878397 53.2725886,35.8124045 53.2929415,35.735772 C53.3354432,35.5711318 53.3785435,35.4070903 53.4294258,35.2472396 C53.4599551,35.1514489 53.4970693,35.058053 53.5311903,34.9640584 C53.5796782,34.8281554 53.6269688,34.6916537 53.6820413,34.5593428 C53.7281347,34.4473875 53.7808129,34.339623 53.8310965,34.2300624 C53.8819788,34.1193044 53.9316639,34.0067504 53.9873351,33.8983872 C54.0471966,33.780445 54.1142415,33.6666935 54.1794905,33.5517447 C54.2339645,33.4559541 54.2866427,33.3583673 54.3447083,33.2649714 C54.4153449,33.1500226 54.4925663,33.0392646 54.5685904,32.927908 C54.6296491,32.8381042 54.688912,32.7471031 54.7535625,32.6602928 C54.8301852,32.5555218 54.9133927,32.4549416 54.9948044,32.3537627 C55.0666382,32.2645576 55.1366762,32.1747538 55.2115031,32.0885422 C55.2911189,31.9969424 55.3761222,31.9101321 55.4593298,31.8215258 C55.5437345,31.731722 55.626942,31.6413196 55.7149384,31.5551079 C55.7957515,31.4766793 55.8807548,31.4024416 55.9639623,31.3270064 C56.0615366,31.2389987 56.1579136,31.1497937 56.2596782,31.0653781 C56.3416885,30.9971273 56.4284877,30.933666 56.5134911,30.8684086 C56.6218404,30.7851904 56.7283939,30.7013736 56.8403349,30.622945 C56.9283314,30.5612797 57.0211167,30.5038053 57.1115076,30.4451336 C57.2246459,30.3720932 57.3365869,30.2978554 57.4533169,30.2296046 C57.55568,30.1697354 57.6622335,30.1158531 57.7675898,30.0595761 C57.8765378,30.001503 57.9842885,29.9416339 58.0950323,29.8877516 C58.2219387,29.826685 58.3524368,29.7728028 58.4823363,29.7177232 C58.5775161,29.6776108 58.6709001,29.6339063 58.7678757,29.5967874 C58.9217198,29.537517 59.0809515,29.4866282 59.2395845,29.4351407 C59.3174045,29.4099956 59.3940272,29.3812584 59.4730444,29.3579095 C59.6328746,29.3112115 59.7939021,29.2746913 59.954331,29.2375724 C60.0393343,29.2178156 60.1225418,29.1932692 60.2081438,29.1759072 C60.3332544,29.1507621 60.458365,29.1345975 60.5834755,29.1148406 C60.7085861,29.0944851 60.8319008,29.0711361 60.9588072,29.0561688 C61.0456064,29.0459911 61.131807,29.0435963 61.2186062,29.0358133 C61.3832254,29.0214447 61.5478445,29.0064774 61.7142596,29.0010892 C61.7950726,28.9980958 61.8758856,29.0022866 61.9566987,29.0016879 C62.1249096,29.0010892 62.2931204,28.9998918 62.4595354,29.0082735 C62.5613,29.0136617 62.6618674,29.0256356 62.7630333,29.0340173 C62.9055037,29.0465898 63.0479741,29.0567675 63.1892473,29.0759257 C63.309569,29.0920903 63.4286934,29.1154393 63.5484164,29.1363935 C63.6681394,29.1573477 63.7878625,29.1759072 63.9063883,29.2016509 C64.0362878,29.2297894 64.1643914,29.2651122 64.2930937,29.2992377 C64.3990485,29.3273762 64.505602,29.3531199 64.6103597,29.3848506 C64.7402592,29.4243642 64.8677642,29.4704635 64.9952692,29.5159641 C65.0970338,29.5518856 65.199397,29.5854123 65.2993657,29.6249259 C65.4214832,29.6728213 65.5412063,29.7279009 65.6609293,29.7811845 C65.7638911,29.8272837 65.8674515,29.8709882 65.9686175,29.9206796 C66.0787627,29.9751606 66.1859148,30.0350298 66.2936655,30.0937015 C66.4014163,30.1517746 66.509167,30.2086503 66.6139246,30.271513 C66.7109003,30.3289874 66.8042843,30.3924487 66.8988654,30.4535152 C67.0090106,30.5253582 67.1197544,30.5960039 67.2269066,30.6720377 C67.3143044,30.7349003 67.3987091,30.8025525 67.4837125,30.8678099 C67.5914632,30.9504293 67.6998125,31.0318514 67.803373,31.1198591 C67.8865805,31.189906 67.9667949,31.2659399 68.0482066,31.3395789 C68.1463794,31.428784 68.2457496,31.5173904 68.3397321,31.6107863 C68.4253341,31.6958005 68.5067458,31.7868016 68.5893547,31.875408 C68.6719635,31.9646131 68.7563683,32.052022 68.8353855,32.1442206 C68.9275722,32.2513864 69.0131742,32.3645391 69.100572,32.4770931 C69.1634266,32.5585152 69.2292743,32.6369438 69.2897344,32.720162 C69.38671,32.8548676 69.4771009,32.9961588 69.5680904,33.1368514 C70.0194463,33.8403141 70.3840029,34.6108303 70.6306323,35.4430118 C71.335801,37.8264034 71.0059641,40.314566 69.8572216,42.3776576 M73.7757091,40.2788087 C74.0747636,38.7335184 74.0747636,37.2667725 73.7757091,35.7209004 C73.1182545,35.6051199 72.4608,35.4893395 71.8033455,35.3729773 C71.6224,34.6986582 71.3792,34.0644841 71.0696727,33.4495097 L71.072,33.4495097 C70.9835636,33.2738027 70.8898909,33.1010048 70.7921455,32.9305342 C70.7909818,32.9287887 70.7904,32.9270433 70.7892364,32.9252979 C71.1726545,32.3783954 71.5554909,31.8320748 71.9383273,31.2845905 C71.4973091,30.6323802 71.0178909,30.0470782 70.4855273,29.514721 C69.9531636,28.9823639 69.3678545,28.5023697 68.7156364,28.0619386 C68.1681455,28.4447704 67.6212364,28.8276021 67.0743273,29.2110156 C66.2964364,28.7618574 65.4941091,28.4290615 64.6266182,28.1969188 C64.5108364,27.5394722 64.3950545,26.8820257 64.2792727,26.2245791 C63.5060364,26.0750536 62.7531636,26 62.0002909,26 C61.2468364,26 60.4939636,26.0750536 59.7213091,26.2245791 C59.6049455,26.8820257 59.4891636,27.5394722 59.3728,28.1969188 C58.5058909,28.4290615 57.7035636,28.7618574 56.9256727,29.2110156 C56.3787636,28.8276021 55.8318545,28.4447704 55.2849455,28.0619386 C54.3063273,28.7228761 53.4784,29.471667 52.7534545,30.3548563 C52.512,30.6492527 52.2821818,30.9587763 52.0616727,31.2845905 C52.4445091,31.8320748 52.8273455,32.3783954 53.2107636,32.9252979 C52.7616,33.7031794 52.4293818,34.5054969 52.1966545,35.3729773 C51.5392,35.4893395 50.8817455,35.6051199 50.2242909,35.7209004 C49.9252364,37.2667725 49.9252364,38.7335184 50.2242909,40.2788087 C50.8817455,40.3945892 51.5392,40.5109514 52.1966545,40.6267318 C52.4293818,41.4942122 52.7616,42.2965297 53.2107636,43.0744112 L52.0616727,44.7151186 C52.2821818,45.0415146 52.512,45.3504564 52.7534545,45.6454346 C52.9954909,45.939831 53.2485818,46.2191004 53.5150545,46.4855699 C53.5400727,46.5105878 53.5685818,46.5321148 53.5936,46.5571326 C54.1061818,47.0598175 54.6635636,47.5182846 55.2849455,47.9383523 C55.8318545,47.5549387 56.3787636,47.172107 56.9256727,46.7892753 C57.0734545,46.8742197 57.2235636,46.9562551 57.3754182,47.033636 C57.3754182,47.0330541 57.376,47.0318905 57.3765818,47.0307269 C58.0142545,47.3582866 58.6717091,47.6148653 59.3728,47.8033721 C59.4891636,48.4608187 59.6049455,49.1182652 59.7213091,49.7757118 C61.2666182,50.0747627 62.7333818,50.0747627 64.2792727,49.7757118 C64.3950545,49.1182652 64.5108364,48.4608187 64.6266182,47.8033721 C65.3009455,47.6224288 65.9357091,47.3792318 66.5506909,47.0697082 L66.5506909,47.0714537 C66.7281455,46.9830184 66.9021091,46.8881832 67.0743273,46.7892753 C67.2384,46.9038921 67.4024727,47.0190907 67.5665455,47.1337075 L68.7156364,47.9383523 C69.6936727,47.276833 70.5216,46.5286239 71.2465455,45.6454346 C71.488,45.3504564 71.7178182,45.0415146 71.9383273,44.7151186 L70.7892364,43.0744112 C70.7904,43.072084 70.7915636,43.0703385 70.7927273,43.0685931 C70.8770909,42.9225585 70.9573818,42.7747785 71.0341818,42.6246712 C71.0330182,42.6240894 71.0318545,42.6240894 71.0306909,42.6235076 C71.3582545,41.9858426 71.6154182,41.3278142 71.8033455,40.6267318 C72.4608,40.5109514 73.1182545,40.3945892 73.7757091,40.2788087" id="Fill-322-Copy-3" fill="#81848B"></path>
                </g>
            </g>
        </g>
    </g>
</svg>