<?xml version="1.0" encoding="UTF-8"?>
<svg width="120px" height="120px" viewBox="0 0 120 120" version="1.1" xmlns="http://www.w3.org/2000/svg" xmlns:xlink="http://www.w3.org/1999/xlink">
    <!-- Generator: Sketch 53.2 (72643) - https://sketchapp.com -->
    <title>btn_app_monitoring_default</title>
    <desc>Created with Sketch.</desc>
    <g id="spec" stroke="none" stroke-width="1" fill="none" fill-rule="evenodd">
        <g id="Artboard" transform="translate(-56.000000, -1042.000000)">
            <g id="btn_app_monitoring_default" transform="translate(56.000000, 1042.000000)">
                <g id="Group-18" fill="#000000">
                    <rect id="Rectangle-Copy-85" x="0" y="0" width="120" height="120" rx="6"></rect>
                </g>
                <g id="Group-34" transform="translate(10.000000, 18.000000)">
                    <path d="M74.0665613,21 C68.1215613,21 62.8180413,24.6433913 60.8193613,30.0988696 C58.8206813,35.5543478 60.5583613,41.6462609 65.1612413,45.3145217 C66.4790013,43.7432174 67.7990813,42.171913 69.1191613,40.5994783 C63.4363213,36.0698261 66.7226013,27.091913 74.0665613,27.091913 C81.4105213,27.091913 84.6991213,36.0698261 79.0151213,40.5994783 C80.3363613,42.171913 81.6541213,43.7432174 82.9742013,45.3145217 C87.5759213,41.6462609 89.3136013,35.5543478 87.3137613,30.0988696 C85.3150813,24.6433913 80.0115613,21 74.0665613,21" id="Path-Copy-4" fill="#81848B"></path>
                    <path d="M79.0240596,27.6152236 C75.3040738,24.9967019 70.1839375,25.5384272 67.1094032,28.8766852 C64.039328,32.2149432 63.9891634,37.290458 66.9956968,40.6847565 C66.3558191,41.4561381 65.7148266,42.2286185 65.0749489,43 C60.8098408,38.574995 60.6560026,31.6787122 64.7182227,27.0734984 C68.7815575,22.466087 75.7310305,21.6584439 80.7709034,25.2076781 C80.1867642,26.009827 79.6059693,26.8130747 79.0240596,27.6152236" id="Path-Copy-5" fill="#000000"></path>
                    <path d="M37.9606034,66 L36.1490158,79 L62.8509842,79 L61.0393966,66 L37.9606034,66 Z" id="Rectangle-Copy-98" stroke="#81848B" stroke-width="2" fill-rule="nonzero"></path>
                    <rect id="Rectangle-Copy-99" fill="#81848B" fill-rule="nonzero" x="35" y="82" width="29" height="2"></rect>
                    <polyline id="Path-2-Copy" stroke="#6699F0" fill-rule="nonzero" points="1 33.6626506 4.73610715 33.6626506 9.19701909 23.9819277 16.2427273 46 25.8295455 14 32.3636364 38.2891566 47 38.2891566"></polyline>
                    <circle id="Oval-Copy-4" fill="#6699F0" fill-rule="nonzero" cx="48.5" cy="38.5" r="3.5"></circle>
                    <rect id="Rectangle-Copy-100" stroke="#81848B" stroke-width="2" fill-rule="nonzero" x="1" y="1" width="98" height="65" rx="4"></rect>
                </g>
            </g>
        </g>
    </g>
</svg>