<?xml version="1.0" encoding="UTF-8"?>
<svg width="13px" height="19px" viewBox="0 0 13 19" version="1.1" xmlns="http://www.w3.org/2000/svg" xmlns:xlink="http://www.w3.org/1999/xlink">
    <!-- Generator: Sketch 53.2 (72643) - https://sketchapp.com -->
    <title>btn_arrow_left_default</title>
    <desc>Created with Sketch.</desc>
    <g id="spec" stroke="none" stroke-width="1" fill="none" fill-rule="evenodd">
        <g id="Artboard" transform="translate(-613.000000, -264.000000)">
            <g id="btn_arrow_left_default" transform="translate(597.000000, 249.000000)">
                <rect id="Rectangle-Copy-2" x="0" y="0" width="48" height="48"></rect>
                <path d="M22.792624,19.0304112 L30.761761,29.3902892 C31.0984949,29.8280434 31.0166019,30.45589 30.5788477,30.792624 C30.4040391,30.9270921 30.1896811,31 29.969137,31 L14.030863,31 C13.4785783,31 13.030863,30.5522847 13.030863,30 C13.030863,29.7794558 13.1037709,29.5650978 13.238239,29.3902892 L21.207376,19.0304112 C21.54411,18.592657 22.1719566,18.510764 22.6097108,18.847498 C22.6783439,18.9002927 22.7398293,18.961778 22.792624,19.0304112 Z" id="Triangle-Copy-4" fill="#6699F0" transform="translate(22.000000, 24.500000) scale(-1, 1) rotate(-270.000000) translate(-22.000000, -24.500000) "></path>
            </g>
        </g>
    </g>
</svg>